Thomas Hudson - Partial Replication of Bicycle Sharing in Seattle
…
station_locs <- station |>
  group_by(station_id) |> 
  select(station_id, lat, long)
station_locs

# A tibble: 58 × 3
# Groups:   station_id [58]
   station_id   lat  long
   <chr>      <dbl> <dbl>
 1 BT-01       47.6 -122.
 2 BT-03       47.6 -122.
 3 BT-04       47.6 -122.
 4 BT-05       47.6 -122.
 5 CBD-03      47.6 -122.
 6 CBD-04      47.6 -122.
 7 CBD-05      47.6 -122.
 8 CBD-06      47.6 -122.
 9 CBD-07      47.6 -122.
10 CBD-13      47.6 -122.
# ℹ 48 more rows
…
